{
    "groups": [
        {
            "name": "A - B",
            "capitals": [
                "Albany", "Annapolis", "Atlanta", "Augusta", "Austin",
                "Baton Rouge", "Bismarck", "Boise", "Boston"
            ]
        },
        {
            "name": "C - D",
            "capitals": [
                "Carson City", "Charleston", "Cheyenne", "Columbia", "Columbus",
                "Concord", "Denver", "Des Moines", "Dover"
            ]
        },
        {
            "name": "E - J",
            "capitals": [
                "Frankfort", "Harrisburg", "Hartford", "Helena", "Honolulu",
                "Indianapolis", "Jackson", "Jefferson City", "Juneau"
            ]
        },
        {
            "name": "K - O",
            "capitals": [
                "Lansing", "Lincoln", "Little Rock", "Madison", "Montgomery",
                "Montpelier", "Nashville", "Oklahoma City", "Olympia"
            ]
        },
        {
            "name": "P - S",
            "capitals": [
                "Phoenix", "Pierre", "Providence", "Raleigh", "Richmond", "Sacramento",
                "Salem", "Salt Lake City", "Santa Fe", "Springfield", "St. Paul"
            ]
        },
        {
            "name": "T - Z",
            "capitals": [
                "Tallahassee", "Topeka", "Trenton"
            ]
        }
    ]
}
